"1","2003"
"2","2003 lite"
"3","2004"
"4","2004 lite"
"5","2005"
"6","2005 lite"
"7","2006"
"8","2006 осень"
"9","2007"
"10","2007 осень		"
"11","2008	"
"12","2008 осень"
"13","2009"
"14","2009 осень"
"15","2010"
"16","2010 осень"
"17","2011"
"18","2011 осень "
