 Место    Фамилия, Имя        2014в 2013о 2013в 2012о 2012в 2011о 2011в 2010о 2010в 2009о 2009в 2009в 2008о 2008о 2008в 2008в 2007о 2007в 2007в 2006о 2006о 2006в 2006в 2005о 2005о 2005в 2004о 2004в 2003о 2003в СУММА
  1. Зайцев Андрей............643   689   737   923   689   1000  1000  991   0     898   0     738   0     0     0     964   680   0     804   0     400   0     0     573   0     0     0     0     0     0     11729 
  2. Галкина Марина...........453   587   508   563   51    317   1000  0     768   459   0     300   0     234   674   0     160   0     493   0     262   0     285   487   0     417   695   640   577   279   10209 
  3. Панов Дмитрий............1000  1000  1000  1000  1000  930   938   680   0     0     0     633   0     442   0     177   186   0     314   0     162   0     612   0     0     0     0     0     0     0     10074 
  4. Мирошкин Сергей..........1000  373   1000  1000  1000  698   872   447   768   292   833   0     773   0     264   0     0     0     0     0     0     0     0     0     0     0     0     0     0     0     9320  
  5. Демещик Павел............0     0     0     0     1000  0     1000  0     1000  0     0     1000  0     0     0     777   1000  0     750   0     376   0     647   377   0     741   505   0     0     0     9173  
  6. Сорокин Антон............269   325   423   605   419   429   565   414   453   386   0     269   0     298   0     635   664   0     458   0     315   0     664   447   0     503   0     0     0     0     8541  
  7. Филиппов Дмитрий.........318   0     446   587   495   538   647   657   746   635   0     364   0     493   0     780   867   0     574   0     0     0     369   0     0     0     0     0     0     0     8516  
  8. Мазин Евгений............609   713   545   811   1000  930   913   0     626   1000  0     552   0     369   0     0     119   0     0     0     140   0     0     0     0     0     0     0     0     0     8327  
  9. Шемятихин Дмитрий........1000  1000  980   694   642   0     381   292   0     992   0     671   0     240   0     573   116   335   0     231   0     0     0     0     0     0     0     0     0     0     8147  
 10. Мирошкин Николай.........1000  1000  980   694   642   469   677   252   171   163   617   0     174   0     0     0     0     0     0     0     0     0     0     0     0     0     0     0     0     0     6839  
 11. Халяпин Александр........606   643   791   761   675   474   569   476   0     549   0     307   0     319   0     347   0     0     114   0     0     0     0     0     0     0     0     0     0     0     6631  
 12. Френклах Яков............567   586   501   770   541   556   520   0     0     772   0     430   0     299   0     459   154   0     289   0     0     0     0     0     0     0     0     0     0     0     6444  
 13. Щепанюк Тадеуш...........0     0     0     0     0     283   0     358   0     298   0     0     953   0     0     0     490   0     0     0     0     0     653   401   0     1000  414   1000  0     357   6207  
 14. Бережецкий Дмитрий.......0     272   279   0     324   0     102   408   180   0     189   0     745   0     0     0     0     0     711   0     297   307   0     334   0     515   88    571   577   279   6178  
 15. Кунцевич Александр.......1000  0     980   0     0     342   552   447   556   765   0     750   0     356   0     187   109   0     0     0     0     0     0     0     0     0     0     0     0     0     6044  
 16. Паршин Александр.........251   316   72    51    300   0     690   43    612   74    0     407   302   0     0     234   121   0     1000  282   0     0     548   0     279   182   204   0     0     0     5968  
 17. Корнилов Александр.......269   325   423   605   419   429   565   414   453   386   0     0     0     0     0     0     0     0     40    0     138   0     81    447   0     503   154   0     0     0     5651  
 18. Гуреев Борис.............0     0     0     0     294   213   0     210   0     144   0     0     0     220   0     0     453   0     451   0     540   1000  0     1000  0     387   720   0     0     0     5632  
 19. Лавров Антон.............0     698   0     0     0     0     0     695   0     519   0     477   0     393   0     1000  652   0     683   0     207   0     145   0     0     0     0     0     0     0     5469  
 20. Якимов Александр.........441   542   350   567   709   418   0     0     0     0     0     359   0     315   0     0     130   0     746   0     0     0     328   0     0     0     0     0     0     0     4905  
 21. Колесов Сергей...........252   295   232   0     300   282   543   327   215   278   0     258   0     296   0     354   227   0     535   0     193   0     317   0     0     0     0     0     0     0     4904  
 22. Алферьев Александр.......0     0     0     0     0     0     0     0     0     0     0     0     0     0     0     0     0     0     0     471   0     0     0     0     1000  1000  0     1000  1000  357   4828  
 23. Курчаков Вячеслав........766   0     0     0     0     0     0     0     0     0     0     0     0     642   0     0     547   1000  0     0     527   0     739   497   0     0     0     0     0     0     4718  
 24. Индриков Сергей..........269   325   423   605   419   429   565   414   453   386   0     269   0     0     0     0     0     0     0     0     0     0     0     0     0     0     0     0     0     0     4557  
 25. Рощин Роман..............0     295   232   0     300   282   0     327   215   278   0     258   0     296   0     354   227   0     535   0     193   0     311   370   0     0     0     0     0     0     4473  
 26. Михалевич Михаил.........169   350   0     0     378   506   305   437   0     373   0     318   0     216   0     580   252   0     218   0     47    0     55    175   0     0     0     87    0     0     4466  
 27. Попов Максим.............236   0     0     0     0     0     0     0     0     0     926   0     0     277   0     0     0     0     694   0     273   0     573   633   0     240   486   0     0     0     4338  
 28. Соколов Борис............242   0     316   499   325   306   326   0     235   428   0     280   0     401   0     721   217   0     0     0     0     0     0     0     0     0     0     0     0     0     4296  
 29. Львов Вячеслав...........0     0     0     568   268   0     0     501   0     0     0     302   0     0     0     0     0     0     0     0     222   0     647   377   0     741   505   0     0     0     4131  
 30. Табаков Михаил...........0     0     0     0     0     283   0     358   0     298   0     0     953   0     0     0     490   0     0     0     0     0     0     0     1000  0     218   0     0     357   3957  
 31. Сафонов Александр........429   568   312   591   320   346   385   243   173   235   0     136   0     94    0     80    33    0     0     0     0     0     0     0     0     0     0     0     0     0     3945  
 32. Сафонова Ирина...........429   568   312   591   320   346   385   243   173   235   0     136   0     94    0     78    33    0     0     0     0     0     0     0     0     0     0     0     0     0     3943  
 33. Яранцев Дмитрий..........344   310   0     0     0     0     438   543   781   406   0     330   0     260   0     425   91    0     0     0     0     0     0     0     0     0     0     0     0     0     3928  
 34. Штыров Александр.........0     0     0     0     0     536   438   543   781   406   0     330   0     260   0     425   85    0     0     0     115   0     0     0     0     0     0     0     0     0     3919  
 35. Авраменко Анна...........252   275   423   490   298   214   147   147   0     0     0     0     0     220   0     0     485   0     344   0     0     0     251   282   0     0     0     0     0     0     3828  
 36. Велигжанин Алексей.......242   0     316   0     252   306   359   278   0     428   0     181   0     0     0     216   210   0     0     0     0     0     201   0     783   0     0     0     0     0     3772  
 37. Жегусов Олег.............344   432   336   0     354   183   298   314   155   259   0     214   0     171   0     288   130   292   0     0     0     0     0     0     0     0     0     0     0     0     3770  
 38. Цыганков Илья............475   425   337   770   0     0     0     346   0     256   790   0     0     173   0     181   0     0     0     0     0     0     0     0     0     0     0     0     0     0     3753  
 39. Агеев Михаил.............0     0     0     0     0     0     0     0     220   0     904   0     0     0     0     634   0     0     679   0     212   0     448   0     0     363   25    0     6     128   3619  
 40. Фишкис Леонид............251   146   0     0     0     0     0     0     220   83    0     0     0     0     0     634   0     0     679   0     89    0     448   155   0     363   116   257   34    128   3603  
 41. Чуприк Николай...........0     0     0     0     0     148   0     252   0     0     1000  0     0     0     248   0     0     499   0     0     0     0     739   672   0     0     0     0     0     0     3558  
 42. Никонов Михаил...........248   354   232   245   294   213   216   210   192   137   0     179   0     218   0     269   139   0     342   0     0     0     0     0     0     0     0     0     0     0     3488  
 43. Леонтьев Михаил..........0     0     259   427   331   209   456   251   349   350   0     295   0     203   0     340   0     0     0     0     0     0     0     0     0     0     0     0     0     0     3470  
 44. Кожевников Сергей........169   350   0     0     378   506   305   0     0     0     0     318   0     0     0     580   0     0     163   435   0     0     55    0     0     0     0     0     0     0     3259  
 45. Лопатин Николай..........0     0     0     0     0     0     0     0     0     0     0     0     0     0     0     0     453   0     451   0     540   0     0     1000  0     0     720   0     0     0     3164  
 46. Батуев Евгений...........766   744   595   155   409   170   262   0     0     0     0     0     0     0     0     54    0     0     0     0     0     0     0     0     0     0     0     0     0     0     3155  
 47. Жегусов Ярослав..........343   433   336   313   372   183   0     320   156   259   0     214   0     171   0     0     0     0     0     0     0     0     0     0     0     0     0     0     0     0     3100  
 48. Удовенко Александр.......0     0     0     0     0     0     0     0     0     0     0     0     0     397   0     735   616   0     0     0     331   0     201   0     783   0     0     0     0     0     3063  
 49. Дорохов Сергей...........0     0     0     0     0     0     0     0     0     0     0     0     0     85    1000  0     0     598   0     644   0     332   0     0     395   0     0     0     0     0     3054  
 50. Благов Александр.........0     104   0     0     0     0     0     0     0     0     0     0     0     0     0     0     750   1000  0     0     682   0     502   0     0     0     0     0     0     0     3038  
 51. Малахов Борис............0     0     0     0     0     0     0     0     0     0     0     0     0     0     0     777   0     0     750   0     0     0     0     0     0     741   505   0     0     0     2773  
 52. Степанов Андрей..........188   226   0     0     0     0     0     0     0     0     0     0     0     0     0     0     1000  0     0     105   717   0     0     529   0     0     0     0     0     0     2765  
 53. Бутов Роман..............0     0     0     0     0     0     0     0     0     0     0     0     0     0     0     945   0     0     794   0     508   0     512   0     0     0     0     0     0     0     2759  
 54. Сашин Андрей.............0     0     0     0     0     0     0     0     0     0     0     0     0     0     0     0     0     0     0     0     208   0     439   373   0     771   310   0     566   68    2735  
 55. Галухина Яна.............0     0     0     0     0     0     0     0     0     0     0     0     0     0     0     0     750   0     0     0     0     0     1000  984   0     0     0     0     0     0     2734  
 56. Слепов Вячеслав..........39    37    37    0     21    30    24    56    108   0     236   0     216   0     162   0     0     158   0     555   0     0     70    0     537   79    46    206   105   0     2722  
 57. Жилин Денис..............0     254   0     0     0     0     0     0     0     0     0     0     0     0     0     0     0     0     0     0     418   0     790   847   0     0     330   0     0     56    2695  
 58. Потребич Нина............0     136   0     0     0     0     0     252   148   0     0     0     933   0     443   0     0     444   0     0     0     324   0     0     0     0     0     0     0     0     2680  
 59. Киселев Александр........561   568   0     591   0     253   428   262   0     0     0     0     0     0     0     0     0     0     0     0     0     0     0     0     0     0     0     0     0     0     2663  
 60. Романенков Сергей........0     0     0     0     0     0     0     0     0     0     0     1000  0     0     0     777   609   0     257   0     0     0     0     0     0     0     0     0     0     0     2643  
 61. Сергин Константин........0     0     0     0     0     0     0     66    75    119   399   0     376   0     155   0     72    259   0     331   0     0     0     0     187   0     409   187   0     0     2635  
 62. Султанов Максим..........557   503   517   601   354   70    0     0     0     0     0     0     0     0     0     0     0     0     0     0     0     0     0     0     0     0     0     0     0     0     2602  
 63. Юсупов Альберт...........557   503   517   601   354   70    0     0     0     0     0     0     0     0     0     0     0     0     0     0     0     0     0     0     0     0     0     0     0     0     2602  
 64. Поляков Павел............0     0     0     0     186   0     41    0     152   0     625   0     631   0     0     0     130   521   0     0     0     315   0     0     0     0     0     0     0     0     2601  
 65. Пирожков Дмитрий.........0     211   0     293   0     0     0     0     0     0     0     0     0     0     0     380   0     0     0     719   0     0     271   658   0     0     0     0     0     0     2532  
 66. Титов Сергей.............0     500   0     0     0     185   0     292   0     370   0     0     0     236   0     0     127   0     418   0     142   0     0     218   0     0     0     0     0     0     2488  
 67. Шавлакова Анна...........0     0     0     0     758   0     0     0     0     0     0     527   1000  0     161   0     0     0     0     0     0     0     0     0     0     0     0     0     0     0     2446  
 68. Крысанов Анатолий........189   0     220   0     354   171   0     391   211   0     697   0     185   0     0     0     0     0     0     0     0     0     0     0     0     0     0     0     0     0     2418  
 69. Цветаева Галина..........189   0     220   0     354   171   0     391   211   0     697   0     185   0     0     0     0     0     0     0     0     0     0     0     0     0     0     0     0     0     2418  
 70. Мортиков Владимир........252   244   270   285   319   0     0     193   130   0     0     210   0     0     0     223   0     76    0     73    0     0     0     0     120   0     0     0     0     0     2395  
 71. Волков Михаил............322   0     193   397   0     0     325   235   196   0     248   0     473   0     0     0     0     0     0     0     0     0     0     0     0     0     0     0     0     0     2389  
 72. Никифорова Анна..........251   388   441   188   103   78    0     98    78    75    0     48    376   0     0     57    0     0     0     0     0     0     0     0     186   0     0     0     0     0     2367  
 73. Масленников Сергей.......212   243   263   328   192   205   83    110   89    134   0     0     463   0     0     0     0     0     0     0     0     0     0     0     0     0     0     0     0     0     2322  
 74. Зотов Александр..........36    0     72    0     33    0     43    0     0     0     449   0     0     0     0     162   0     0     261   0     183   0     206   313   0     0     349   187   0     0     2294  
 75. Андрианов Александр......0     0     0     0     0     0     41    0     152   0     625   0     631   0     0     0     0     521   0     0     0     315   0     0     0     0     0     0     0     0     2285  
 76. Геллер Олег..............114   0     23    0     0     0     0     0     0     0     137   0     423   0     0     183   0     0     384   0     271   0     156   593   0     0     0     0     0     0     2284  
 77. Васильев Евгений.........0     0     0     0     0     0     0     0     0     312   0     154   134   0     0     330   245   0     113   0     210   0     239   377   0     0     128   0     0     0     2242  
 78. Дещеревский Алексей......82    77    174   163   99    0     0     0     0     0     0     181   0     166   0     528   272   426   0     0     65    0     0     0     0     0     0     0     0     0     2233  
 79. Леонова Ольга............0     0     0     0     0     0     0     695   0     519   0     477   0     393   0     0     0     0     0     127   0     0     0     0     0     0     0     0     0     0     2211  
 80. Никитин Юрий.............0     0     0     149   71    145   0     0     148   176   0     185   0     155   394   0     253   472   0     0     0     0     0     0     0     0     0     0     0     0     2148  
 81. Зеленцов Дмитрий.........0     39    0     0     0     0     0     66    75    119   399   0     376   0     0     0     72    259   0     331   0     0     0     0     0     0     401   0     0     0     2137  
 82. Нагаев Алексей...........0     0     0     0     0     0     0     0     0     0     0     0     0     0     0     0     176   0     0     0     0     0     0     0     0     0     1000  960   0     0     2136  
 83. Розанов Павел............0     312   430   446   0     0     0     355   0     0     0     203   0     135   0     203   43    0     0     0     0     0     0     0     0     0     0     0     0     0     2127  
 84. Агапов Андрей............0     0     0     0     0     0     0     0     0     0     0     0     0     0     0     0     0     0     0     0     0     0     0     1000  0     387   720   0     0     0     2107  
 85. Редкозубов Алексей.......0     0     0     0     0     0     100   0     65    0     0     0     271   0     0     0     151   353   0     520   0     0     0     0     645   0     0     0     0     0     2105  
 86. Круглов Олег.............0     0     0     0     0     0     0     0     0     992   0     0     0     284   0     509   0     0     292   0     0     0     0     0     0     0     0     0     0     0     2077  
 87. Жилина Анна..............0     0     0     0     0     0     0     0     0     0     0     0     0     0     0     0     0     0     0     0     418   0     790   847   0     0     0     0     0     0     2055  
 88. Каритич Алексей..........0     0     0     257   302   185   175   291   0     199   0     202   0     140   0     169   73    0     0     0     54    0     0     0     0     0     0     0     0     0     2047  
 89. Сорокин Павел............306   309   283   75    172   0     96    0     0     94    301   0     366   0     40    0     0     0     0     0     0     0     0     0     0     0     0     0     0     0     2042  
 90. Гарифулин Тимур..........0     0     0     0     0     71    20    111   106   0     0     33    0     79    0     175   141   0     167   0     105   0     183   181   0     195   245   212   6     0     2030  
 91. Семиков Александр........320   351   284   0     226   57    47    56    0     0     147   0     256   0     0     0     32    138   0     113   0     0     0     0     0     0     0     0     0     0     2027  
 92. Бурлинова Анна...........0     0     0     0     0     0     0     0     0     0     0     0     0     0     0     0     0     0     0     0     717   0     0     984   0     0     312   0     0     0     2013  
 93. Юдаев Павел..............0     0     0     117   0     113   0     257   0     372   0     0     295   0     0     0     44    0     0     304   0     0     0     157   0     0     323   0     0     0     1982  
 94. Парфеньев Евгений........0     0     0     0     541   556   520   111   0     0     0     0     0     102   0     140   0     0     0     0     0     0     0     0     0     0     0     0     0     0     1970  
 95. Ягодин Василий...........0     0     0     679   321   445   258   150   0     0     117   0     0     0     0     0     0     0     0     0     0     0     0     0     0     0     0     0     0     0     1970  
 96. Якунин Юрий..............433   407   416   28    389   214   81    0     0     0     0     0     0     0     0     0     0     0     0     0     0     0     0     0     0     0     0     0     0     0     1968  
 97. Кубарев Михаил...........0     0     0     0     590   0     637   0     249   0     0     0     0     0     0     0     0     0     0     0     0     0     0     0     0     491   0     0     0     0     1967  
 98. Флоринский Алексей.......0     0     0     0     0     47    0     0     0     85    469   0     0     0     200   0     104   389   0     250   0     0     0     0     407   0     0     0     0     0     1951  
 99. Фоминов Яков.............0     0     0     234   0     0     0     0     0     112   0     167   0     205   0     0     229   0     284   0     0     378   0     0     290   48    0     0     0     0     1947  
100. Калугин Андрей...........0     0     0     0     0     0     0     78    0     0     487   0     236   0     278   0     0     219   0     148   0     0     0     0     479   0     0     0     0     0     1925  
